%YAML 1.1
%TAG !u! tag:unity3d.com,2011:
--- !u!114 &11400000
MonoBehaviour:
  m_ObjectHideFlags: 0
  m_CorrespondingSourceObject: {fileID: 0}
  m_PrefabInstance: {fileID: 0}
  m_PrefabAsset: {fileID: 0}
  m_GameObject: {fileID: 0}
  m_Enabled: 1
  m_EditorHideFlags: 0
  m_Script: {fileID: 11500000, guid: 935899b62f48ae5498594680ed17d133, type: 3}
  m_Name: DialogueData
  m_EditorClassIdentifier: 
  version: 
  author: 
  description: 
  globalUserScript: 
  emphasisSettings:
  - color: {r: 1, g: 1, b: 1, a: 1}
    bold: 0
    italic: 0
    underline: 0
  - color: {r: 1, g: 0, b: 0, a: 1}
    bold: 0
    italic: 0
    underline: 0
  - color: {r: 0, g: 1, b: 0, a: 1}
    bold: 0
    italic: 0
    underline: 0
  - color: {r: 0, g: 0, b: 1, a: 1}
    bold: 0
    italic: 0
    underline: 0
  baseID: 1
  actors:
  - id: 1
    fields:
    - title: Name
      value: Player
      type: 0
      typeString: CustomFieldType_Text
    - title: Pictures
      value: '[]'
      type: 3
      typeString: CustomFieldType_Files
    - title: Description
      value: "\u4E3B\u89D2"
      type: 0
      typeString: CustomFieldType_Text
    - title: IsPlayer
      value: True
      type: 2
      typeString: CustomFieldType_Boolean
    - title: Articy Id
      value: 
      type: 0
      typeString: 
    - title: Technical Name
      value: 
      type: 0
      typeString: 
    - title: Motivation
      value: 
      type: 0
      typeString: 
    - title: InnerConflict
      value: 
      type: 0
      typeString: 
    - title: Skills
      value: 
      type: 0
      typeString: 
    - title: Fears
      value: 
      type: 0
      typeString: 
    - title: Habits
      value: 
      type: 0
      typeString: 
    - title: FurtherDetails
      value: 
      type: 0
      typeString: 
    - title: Age
      value: 
      type: 1
      typeString: CustomFieldType_Number
    - title: Species
      value: 
      type: 0
      typeString: 
    - title: BornIn
      value: 
      type: 0
      typeString: 
    - title: Sex
      value: 
      type: 1
      typeString: CustomFieldType_Number
    - title: Occupation
      value: 
      type: 0
      typeString: 
    - title: Accent
      value: 
      type: 0
      typeString: 
    - title: Personality
      value: 
      type: 0
      typeString: 
    - title: Appearance
      value: 
      type: 0
      typeString: 
    portrait: {fileID: 0}
    spritePortrait: {fileID: 0}
    alternatePortraits: []
    spritePortraits: []
  - id: 2
    fields:
    - title: Name
      value: npc1
      type: 0
      typeString: CustomFieldType_Text
    - title: Pictures
      value: '[]'
      type: 3
      typeString: CustomFieldType_Files
    - title: Description
      value: 
      type: 0
      typeString: CustomFieldType_Text
    - title: IsPlayer
      value: False
      type: 2
      typeString: CustomFieldType_Boolean
    portrait: {fileID: 0}
    spritePortrait: {fileID: 0}
    alternatePortraits: []
    spritePortraits: []
  - id: 3
    fields:
    - title: Name
      value: npc2
      type: 0
      typeString: CustomFieldType_Text
    - title: Pictures
      value: '[]'
      type: 3
      typeString: CustomFieldType_Files
    - title: Description
      value: 
      type: 0
      typeString: CustomFieldType_Text
    - title: IsPlayer
      value: False
      type: 2
      typeString: CustomFieldType_Boolean
    portrait: {fileID: 0}
    spritePortrait: {fileID: 0}
    alternatePortraits: []
    spritePortraits: []
  items: []
  locations: []
  variables:
  - id: 1
    fields:
    - title: Name
      value: Alert
      type: 0
      typeString: CustomFieldType_Text
    - title: Initial Value
      value: 
      type: 0
      typeString: CustomFieldType_Text
    - title: Description
      value: 
      type: 0
      typeString: CustomFieldType_Text
  conversations:
  - id: 1
    fields:
    - title: Title
      value: "\u5F00\u59CB"
      type: 0
      typeString: CustomFieldType_Text
    - title: Pictures
      value: '[]'
      type: 3
      typeString: CustomFieldType_Files
    - title: Description
      value: 
      type: 0
      typeString: CustomFieldType_Text
    - title: Actor
      value: 1
      type: 5
      typeString: CustomFieldType_Actor
    - title: Conversant
      value: 2
      type: 5
      typeString: CustomFieldType_Actor
    overrideSettings:
      useOverrides: 0
      overrideSubtitleSettings: 0
      showNPCSubtitlesDuringLine: 1
      showNPCSubtitlesWithResponses: 1
      showPCSubtitlesDuringLine: 0
      skipPCSubtitleAfterResponseMenu: 0
      subtitleCharsPerSecond: 30
      minSubtitleSeconds: 2
      continueButton: 0
      overrideSequenceSettings: 0
      defaultSequence: 
      defaultPlayerSequence: 
      defaultResponseMenuSequence: 
      overrideInputSettings: 0
      alwaysForceResponseMenu: 1
      includeInvalidEntries: 0
      responseTimeout: 0
      cancelSubtitle:
        key: 27
        buttonName: 
      cancelConversation:
        key: 27
        buttonName: 
    nodeColor: 
    dialogueEntries:
    - id: 0
      fields:
      - title: Title
        value: START
        type: 0
        typeString: 
      - title: Pictures
        value: '[]'
        type: 3
        typeString: CustomFieldType_Files
      - title: Description
        value: 
        type: 0
        typeString: 
      - title: Actor
        value: 1
        type: 5
        typeString: CustomFieldType_Actor
      - title: Conversant
        value: 2
        type: 5
        typeString: CustomFieldType_Actor
      - title: Menu Text
        value: 
        type: 0
        typeString: 
      - title: Dialogue Text
        value: 
        type: 0
        typeString: 
      - title: Parenthetical
        value: 
        type: 0
        typeString: 
      - title: Audio Files
        value: '[]'
        type: 3
        typeString: CustomFieldType_Files
      - title: Video File
        value: 
        type: 0
        typeString: 
      - title: Sequence
        value: None()
        type: 0
        typeString: 
      conversationID: 1
      isRoot: 0
      isGroup: 0
      nodeColor: 
      delaySimStatus: 0
      falseConditionAction: Block
      conditionPriority: 2
      outgoingLinks:
      - originConversationID: 1
        originDialogueID: 0
        destinationConversationID: 1
        destinationDialogueID: 1
        isConnector: 0
        priority: 2
      conditionsString: 
      userScript: 
      onExecute:
        m_PersistentCalls:
          m_Calls: []
      canvasRect:
        serializedVersion: 2
        x: 211
        y: 19
        width: 160
        height: 30
    - id: 1
      fields:
      - title: Title
        value: 
        type: 0
        typeString: CustomFieldType_Text
      - title: Pictures
        value: '[]'
        type: 3
        typeString: CustomFieldType_Files
      - title: Description
        value: 
        type: 0
        typeString: CustomFieldType_Text
      - title: Actor
        value: 1
        type: 5
        typeString: CustomFieldType_Actor
      - title: Conversant
        value: 2
        type: 5
        typeString: CustomFieldType_Actor
      - title: Menu Text
        value: 
        type: 0
        typeString: CustomFieldType_Text
      - title: Dialogue Text
        value: "\u4F60\u9192\u6765\u4E86"
        type: 0
        typeString: CustomFieldType_Text
      - title: Parenthetical
        value: 
        type: 0
        typeString: CustomFieldType_Text
      - title: Audio Files
        value: '[]'
        type: 3
        typeString: CustomFieldType_Files
      - title: Video File
        value: 
        type: 0
        typeString: CustomFieldType_Text
      - title: Sequence
        value: 
        type: 0
        typeString: CustomFieldType_Text
      conversationID: 1
      isRoot: 0
      isGroup: 0
      nodeColor: 
      delaySimStatus: 0
      falseConditionAction: Block
      conditionPriority: 2
      outgoingLinks:
      - originConversationID: 1
        originDialogueID: 1
        destinationConversationID: 1
        destinationDialogueID: 2
        isConnector: 0
        priority: 2
      conditionsString: 
      userScript: 
      onExecute:
        m_PersistentCalls:
          m_Calls: []
      canvasRect:
        serializedVersion: 2
        x: 210
        y: 84
        width: 160
        height: 30
    - id: 2
      fields:
      - title: Title
        value: 
        type: 0
        typeString: CustomFieldType_Text
      - title: Pictures
        value: '[]'
        type: 3
        typeString: CustomFieldType_Files
      - title: Description
        value: 
        type: 0
        typeString: CustomFieldType_Text
      - title: Actor
        value: 1
        type: 5
        typeString: CustomFieldType_Actor
      - title: Conversant
        value: 2
        type: 5
        typeString: CustomFieldType_Actor
      - title: Menu Text
        value: 
        type: 0
        typeString: CustomFieldType_Text
      - title: Dialogue Text
        value: 
        type: 0
        typeString: CustomFieldType_Text
      - title: Parenthetical
        value: 
        type: 0
        typeString: CustomFieldType_Text
      - title: Audio Files
        value: '[]'
        type: 3
        typeString: CustomFieldType_Files
      - title: Video File
        value: 
        type: 0
        typeString: CustomFieldType_Text
      - title: Sequence
        value: 
        type: 0
        typeString: CustomFieldType_Text
      conversationID: 1
      isRoot: 0
      isGroup: 0
      nodeColor: 
      delaySimStatus: 0
      falseConditionAction: Block
      conditionPriority: 2
      outgoingLinks: []
      conditionsString: 
      userScript: 
      onExecute:
        m_PersistentCalls:
          m_Calls: []
      canvasRect:
        serializedVersion: 2
        x: 208
        y: 142
        width: 160
        height: 30
    entryGroups: []
    canvasScrollPosition: {x: 0, y: 0}
    canvasZoom: 1
  - id: 2
    fields:
    - title: Title
      value: "\u548Cnpc1\u5BF9\u8BDD"
      type: 0
      typeString: CustomFieldType_Text
    - title: Pictures
      value: '[]'
      type: 3
      typeString: CustomFieldType_Files
    - title: Description
      value: 
      type: 0
      typeString: CustomFieldType_Text
    - title: Actor
      value: 1
      type: 5
      typeString: CustomFieldType_Actor
    - title: Conversant
      value: 2
      type: 5
      typeString: CustomFieldType_Actor
    overrideSettings:
      useOverrides: 0
      overrideSubtitleSettings: 0
      showNPCSubtitlesDuringLine: 1
      showNPCSubtitlesWithResponses: 1
      showPCSubtitlesDuringLine: 0
      skipPCSubtitleAfterResponseMenu: 0
      subtitleCharsPerSecond: 30
      minSubtitleSeconds: 2
      continueButton: 0
      overrideSequenceSettings: 0
      defaultSequence: 
      defaultPlayerSequence: 
      defaultResponseMenuSequence: 
      overrideInputSettings: 0
      alwaysForceResponseMenu: 1
      includeInvalidEntries: 0
      responseTimeout: 0
      cancelSubtitle:
        key: 27
        buttonName: 
      cancelConversation:
        key: 27
        buttonName: 
    nodeColor: 
    dialogueEntries:
    - id: 0
      fields:
      - title: Title
        value: START
        type: 0
        typeString: 
      - title: Pictures
        value: '[]'
        type: 3
        typeString: CustomFieldType_Files
      - title: Description
        value: 
        type: 0
        typeString: 
      - title: Actor
        value: 1
        type: 5
        typeString: CustomFieldType_Actor
      - title: Conversant
        value: 2
        type: 5
        typeString: CustomFieldType_Actor
      - title: Menu Text
        value: 
        type: 0
        typeString: 
      - title: Dialogue Text
        value: 
        type: 0
        typeString: 
      - title: Parenthetical
        value: 
        type: 0
        typeString: 
      - title: Audio Files
        value: '[]'
        type: 3
        typeString: CustomFieldType_Files
      - title: Video File
        value: 
        type: 0
        typeString: 
      - title: Sequence
        value: None()
        type: 0
        typeString: 
      conversationID: 2
      isRoot: 0
      isGroup: 0
      nodeColor: 
      delaySimStatus: 0
      falseConditionAction: 
      conditionPriority: 2
      outgoingLinks: []
      conditionsString: 
      userScript: 
      onExecute:
        m_PersistentCalls:
          m_Calls: []
      canvasRect:
        serializedVersion: 2
        x: 30
        y: 20
        width: 160
        height: 30
    entryGroups: []
    canvasScrollPosition: {x: 0, y: 0}
    canvasZoom: 1
  syncInfo:
    syncActors: 0
    syncItems: 0
    syncLocations: 0
    syncVariables: 0
    syncActorsDatabase: {fileID: 0}
    syncItemsDatabase: {fileID: 0}
    syncLocationsDatabase: {fileID: 0}
    syncVariablesDatabase: {fileID: 0}
  templateJson: '{"treatItemsAsQuests":true,"actorFields":[{"title":"Name","value":"","type":0,"typeString":""},{"title":"Pictures","value":"[]","type":3,"typeString":"CustomFieldType_Files"},{"title":"Description","value":"","type":0,"typeString":""},{"title":"IsPlayer","value":"False","type":2,"typeString":"CustomFieldType_Boolean"}],"itemFields":[{"title":"Name","value":"","type":0,"typeString":""},{"title":"Pictures","value":"[]","type":3,"typeString":"CustomFieldType_Files"},{"title":"Description","value":"","type":0,"typeString":""},{"title":"Is
    Item","value":"True","type":2,"typeString":"CustomFieldType_Boolean"}],"questFields":[{"title":"Name","value":"","type":0,"typeString":""},{"title":"Pictures","value":"[]","type":3,"typeString":"CustomFieldType_Files"},{"title":"Description","value":"","type":0,"typeString":""},{"title":"Success
    Description","value":"","type":0,"typeString":""},{"title":"Failure Description","value":"","type":0,"typeString":""},{"title":"State","value":"unassigned","type":0,"typeString":""},{"title":"Is
    Item","value":"False","type":2,"typeString":"CustomFieldType_Boolean"}],"locationFields":[{"title":"Name","value":"","type":0,"typeString":""},{"title":"Description","value":"","type":0,"typeString":""}],"variableFields":[{"title":"Name","value":"","type":0,"typeString":""},{"title":"Initial
    Value","value":"","type":0,"typeString":""},{"title":"Description","value":"","type":0,"typeString":""}],"conversationFields":[{"title":"Title","value":"","type":0,"typeString":""},{"title":"Description","value":"","type":0,"typeString":""},{"title":"Actor","value":"0","type":5,"typeString":"CustomFieldType_Actor"},{"title":"Conversant","value":"0","type":5,"typeString":"CustomFieldType_Actor"}],"dialogueEntryFields":[{"title":"Title","value":"","type":0,"typeString":""},{"title":"Description","value":"","type":0,"typeString":""},{"title":"Actor","value":"","type":5,"typeString":"CustomFieldType_Actor"},{"title":"Conversant","value":"","type":5,"typeString":"CustomFieldType_Actor"},{"title":"Menu
    Text","value":"","type":0,"typeString":""},{"title":"Dialogue Text","value":"","type":0,"typeString":""},{"title":"Sequence","value":"","type":0,"typeString":""}],"actorPrimaryFieldTitles":[],"itemPrimaryFieldTitles":[],"questPrimaryFieldTitles":[],"locationPrimaryFieldTitles":[],"variablePrimaryFieldTitles":[],"conversationPrimaryFieldTitles":[],"dialogueEntryPrimaryFieldTitles":[],"npcLineColor":{"r":1.0,"g":0.0,"b":0.0,"a":1.0},"pcLineColor":{"r":0.0,"g":0.0,"b":1.0,"a":1.0},"repeatLineColor":{"r":0.5,"g":0.5,"b":0.5,"a":1.0}}'
